Describe data
…
all_data_long <- log_data |> 
  pivot_longer(
    cols = contains(c("control", "tau")), 
    names_to = "experiment", 
    values_to = "gene_expression"
  )

Let’s look at the experiments. There are 18 per gene.

filtered_data |>
  group_by(gene_ensembl) |>
  summarise(row_count = n())

# A tibble: 2,036 × 2
   gene_ensembl    row_count
   <chr>               <int>
 1 ENSG00000001617         1
 2 ENSG00000002745         1
 3 ENSG00000003137         1
 4 ENSG00000004399         1
 5 ENSG00000005108         1
 6 ENSG00000005249         1
 7 ENSG00000005812         1
 8 ENSG00000005893         1
 9 ENSG00000005961         1
10 ENSG00000006016         1
# ℹ 2,026 more rows
…
